{"ads":[{"_id":"69e21e0e6c29893e5602b37e","title":"Bluetooth Speaker","description":"Loud sound, portable","status":"published","currency":"USD","tags":["electronics"],"media":[],"views":0,"clicks":0,"createdAt":"2026-04-17T11:48:30.296Z"},{"_id":"69e21e0e6c29893e5602b37d","title":"Car GPS System","description":"Accurate navigation","status":"published","currency":"USD","tags":["vehicles"],"media":[],"views":0,"clicks":0,"createdAt":"2026-04-17T11:48:30.292Z"},{"_id":"69e21e0e6c29893e5602b37c","title":"Football","description":"Durable quality","status":"published","currency":"USD","tags":["sports"],"media":[],"views":0,"clicks":0,"createdAt":"2026-04-17T11:48:30.288Z"},{"_id":"69e21e0e6c29893e5602b37b","title":"Microwave Oven","description":"Compact size","status":"published","currency":"USD","tags":["appliances"],"media":[],"views":0,"clicks":0,"createdAt":"2026-04-17T11:48:30.284Z"},{"_id":"69e21e0e6c29893e5602b37a","title":"Baby Stroller","description":"Safe and comfortable","status":"published","currency":"USD","tags":["kids"],"media":[],"views":0,"clicks":0,"createdAt":"2026-04-17T11:48:30.280Z"},{"_id":"69e21e0e6c29893e5602b379","title":"LED Lights Set","description":"Decorative lights","status":"published","currency":"USD","tags":["home decor"],"media":[],"views":0,"clicks":0,"createdAt":"2026-04-17T11:48:30.275Z"},{"_id":"69e21e0e6c29893e5602b378","title":"Office Desk","description":"Modern design","status":"published","currency":"USD","tags":["furniture"],"media":[],"views":0,"clicks":0,"createdAt":"2026-04-17T11:48:30.272Z"},{"_id":"69e21e0e6c29893e5602b377","title":"Washing Machine","description":"Fully automatic","status":"published","currency":"USD","tags":["appliances"],"media":[],"views":0,"clicks":0,"createdAt":"2026-04-17T11:48:30.267Z"},{"_id":"69e21e0e6c29893e5602b376","title":"Guitar Acoustic","description":"Beginner friendly","status":"published","currency":"USD","tags":["music"],"media":[],"views":0,"clicks":0,"createdAt":"2026-04-17T11:48:30.263Z"},{"_id":"69e21e0e6c29893e5602b375","title":"Bed with Mattress","description":"King size bed","status":"published","currency":"USD","tags":["furniture"],"media":[],"views":0,"clicks":0,"createdAt":"2026-04-17T11:48:30.258Z"},{"_id":"69e21e0e6c29893e5602b374","title":"Tablet Samsung","description":"Good battery life","status":"published","currency":"USD","tags":["electronics"],"media":[],"views":0,"clicks":0,"createdAt":"2026-04-17T11:48:30.253Z"},{"_id":"69e21e0e6c29893e5602b373","title":"Smart Watch","description":"Fitness tracking","status":"published","currency":"USD","tags":["electronics"],"media":[],"views":0,"clicks":0,"createdAt":"2026-04-17T11:48:30.248Z"},{"_id":"69e21e0e6c29893e5602b372","title":"Dining Table Set","description":"6 chairs included","status":"published","currency":"USD","tags":["furniture"],"media":[],"views":0,"clicks":0,"createdAt":"2026-04-17T11:48:30.244Z"},{"_id":"69e21e0e6c29893e5602b371","title":"Nike Running Shoes","description":"Comfortable shoes","status":"published","currency":"USD","tags":["fashion"],"media":[],"views":0,"clicks":0,"createdAt":"2026-04-17T11:48:30.240Z"},{"_id":"69e21e0e6c29893e5602b370","title":"Refrigerator Haier","description":"Good cooling","status":"published","currency":"USD","tags":["appliances"],"media":[],"views":0,"clicks":0,"createdAt":"2026-04-17T11:48:30.236Z"},{"_id":"69e21e0e6c29893e5602b36f","title":"Study Books Set","description":"Complete semester books","status":"published","currency":"USD","tags":["education"],"media":[],"views":0,"clicks":0,"createdAt":"2026-04-17T11:48:30.231Z"},{"_id":"69e21e0e6c29893e5602b36e","title":"Dell Monitor 24\"","description":"HD display","status":"published","currency":"USD","tags":["electronics"],"media":[],"views":0,"clicks":0,"createdAt":"2026-04-17T11:48:30.225Z"},{"_id":"69e21e0e6c29893e5602b36d","title":"Women Handbag","description":"Brand new","status":"published","currency":"USD","tags":["fashion"],"media":[],"views":0,"clicks":0,"createdAt":"2026-04-17T11:48:30.220Z"},{"_id":"69e21e0e6c29893e5602b36c","title":"Air Conditioner 1.5 Ton","description":"Works perfectly","status":"published","currency":"USD","tags":["electronics"],"media":[],"views":0,"clicks":0,"createdAt":"2026-04-17T11:48:30.215Z"},{"_id":"69e21e0e6c29893e5602b36b","title":"Sofa Set 5 Seater","description":"Clean and stylish","status":"published","currency":"USD","tags":["furniture"],"media":[],"views":0,"clicks":0,"createdAt":"2026-04-17T11:48:30.211Z"}],"pagination":{"page":1,"limit":20,"total":30,"pages":2}}
